0.33333,0,0.33333,0.66667,0.33333,0,0,0,0,0.33333,1,1,0.33333,0,0,0.33333,0.66667,0.66667,0.66667
0,0,0,0,0,0,0,0,0,0,0,0,0,0,0,0,0,0,0
0,0,0,0,0.33333,1,1,0.33333,0,0,0,0,0,0.33333,0.66667,0.33333,0,0,0
0,0,0,0,0,0,0,0,0,0,0,0,0,0,0,0,0,0,0
0.33333,0.66667,0.66667,0.33333,0,0,0,0,0,0,0,0,0.33333,0.66667,0.33333,0,0,0,0
0,0,0,0,0,0,0,0.33333,0.66667,0.33333,0,0,0.33333,0.66667,0.33333,0,0,0,0
0,0,0,0,0,0,0,0,0,0,0,0,0,0,0,0,0,0,0
0,0.33333,0.33333,0.33333,0.66667,0.33333,0,0,0,0,0,0.33333,0.33333,0,0.33333,0.66667,0.33333,0,0
0,0,0,0,0,0,0,0,0,0,0,0,0,0,0,0,0,0,0
0,0,0,0,0,0,0.33333,0.66667,0.33333,0,0,0,0,0,0,0,0,0,0
0,0,0,0,0,0,0,0,0,0,0,0,0,0,0,0,0,0,0
0,0,0,0,0,0,0,0,0.33333,0.66667,0.33333,0.33333,0.66667,0.66667,0.66667,0.66667,0.33333,0,0
