1.564987253243122489e-01,7.455804045613726450e-01,9.681759813294277262e-02,8.362446929110478600e-02,5.597924561956558742e-01,2.357668403320592188e-01,7.368736394970182291e-02,1.098183982382226198e-01,6.435194603633294375e-02,1.367245602477341337e-01,4.918000326047972659e-01,9.575993810176005594e-01,4.614751092305911517e-01,2.298730944630356376e-01,1.576654114572356158e-01,2.575990708636815563e-01,2.579823813083554906e-01,8.834738860715147801e-01,5.123181811526129614e-01,9.159122814835189696e-02,0.000000000000000000e+00
7.734606154058626393e-02,3.148533233426817901e-01,1.306597602316764972e-01,1.460616000206285681e-01,2.467278021325175486e-01,1.939964914348908109e-01,3.487936068518083799e-01,6.193263249396352421e-01,2.298225501493860456e-01,7.801616476061783156e-02,2.061173066033981371e-01,3.724510965469835511e-01,2.168087963546726504e-01,1.460651945533390228e-01,1.200630852856107156e-01,4.603196255701367257e-01,4.300665989793580057e-01,3.621765224814806339e-01,1.855147677954958885e-01,3.335577174766563013e-02,0.000000000000000000e+00
3.474966416259907265e-02,1.267165239928814691e-01,2.051569003520865575e-01,2.373553732656568105e-01,1.195963030096612034e-01,2.739389844293090848e-01,5.692166430526364174e-01,9.939976467911066926e-01,3.415586567555522479e-01,9.856265635141521486e-02,1.129504292275732846e-01,1.016421682372852797e-01,1.555642455987217565e-01,2.159772648725738764e-01,1.860914069780735258e-01,7.329055428831173780e-01,6.947210003903562248e-01,1.375363098122794059e-01,2.978832759799620103e-02,5.810213663628681358e-03,0.000000000000000000e+00
3.002385109043465353e-02,2.075408399156792039e-01,3.895413588330488563e-01,4.322130169155803392e-01,3.124381340045592759e-01,1.487418846278553974e-01,2.424857771744194090e-01,3.868460221904104768e-01,1.702833792959339287e-01,1.404673046506275669e-01,1.261043027509683445e-01,9.187867483141511082e-02,9.227456960189334145e-02,2.208669913412666663e-01,5.185518472806485146e-01,3.583213597456973432e-01,3.233603464915720260e-01,1.203966192538824670e-01,2.135879205533626479e-02,4.835312125702691775e-03,0.000000000000000000e+00
2.953411770867958933e-02,2.917199222952477355e-01,5.560984726938184020e-01,6.121927371038252685e-01,4.875377597425766818e-01,9.596729705418234613e-02,6.520697829797211797e-02,8.953697528216028600e-02,2.288815904754268604e-01,6.095703846878544052e-01,2.289437725570208360e-01,9.819319289291712771e-02,7.860234309558793153e-02,2.204223894722893429e-01,8.811071309544594721e-01,5.097247000502086456e-01,1.427717824736219610e-01,1.121677630040996826e-01,2.451128418130893091e-02,5.343066990259200642e-03,0.000000000000000000e+00
2.560301778098330455e-02,1.494284952155773838e-01,2.505992202687820636e-01,2.816138290113313070e-01,2.006457544870091925e-01,1.308100638124266302e-01,7.227377472024824889e-02,6.232601930011780894e-02,2.814362412561571825e-01,9.543734818668653253e-01,3.159432386209607979e-01,7.507416086127195742e-02,1.015448745756554194e-01,1.846378235563761461e-01,7.967712888659295167e-01,7.631660537202004102e-01,1.937403713317193688e-01,9.749388670882402907e-02,1.615534456419000578e-02,3.784086683742592366e-03,0.000000000000000000e+00
3.547509365063365727e-02,1.356170505917432823e-01,3.697962449417039332e-01,5.762060335498615515e-01,1.146572057099238401e-01,5.905540590152686953e-01,3.509954947332253328e-01,7.478476139197673400e-02,1.307298187950610147e-01,3.895209452457351618e-01,2.046106687002201274e-01,1.167781329759036701e-01,3.680421917961906875e-01,6.216607458489921134e-01,3.495805787563969758e-01,3.685018904206173174e-01,6.862053785468740230e-01,2.363539609908161254e-01,5.323362265972168827e-02,9.843786558580468540e-03,0.000000000000000000e+00
3.995526603080997580e-02,1.648579469223427907e-01,5.620465528893696661e-01,8.982112601680721786e-01,1.507078201180179766e-01,9.303835940112322733e-01,5.348344355627525637e-01,8.465666838922823734e-02,8.169699570782688880e-02,8.779511954106111737e-02,1.294175441795235859e-01,1.622224712480195008e-01,5.698161160766580524e-01,8.873163935942283143e-01,1.561065214324335038e-01,2.081241565232249402e-01,1.000000000000000000e+00,3.158805810896579969e-01,8.719286326115624486e-02,1.549429557259432086e-02,0.000000000000000000e+00
2.454563434425187374e-02,9.481712019718895046e-02,2.387749847045607665e-01,3.449932516484078282e-01,8.476090123300353274e-02,3.565482072510960387e-01,2.021191960952283262e-01,1.206240807544783078e-01,2.549209893278850392e-01,9.971284287775915300e-02,7.410159463242108058e-02,8.756067613780549319e-02,2.300252285017489462e-01,3.350451979970407446e-01,1.005480287105013082e-01,1.286693549619166710e-01,3.903695133099620018e-01,1.428737358342022090e-01,3.869324610570035877e-02,7.251625819973030705e-03,0.000000000000000000e+00
2.145037480547155873e-02,7.460213571398179033e-02,6.194425579505347806e-02,6.092919110092537976e-02,4.938928968947102482e-02,6.651849409827223503e-02,5.197864747254688639e-02,1.610100463950076000e-01,3.995363341786589695e-01,1.395750448002802402e-01,7.807776308005051624e-02,7.287050560690785939e-02,5.552887975560301392e-02,8.954716047799804457e-02,8.235234929304689755e-02,1.273780940516096583e-01,1.211624864907293181e-01,9.052292182632311335e-02,2.953719960975687703e-02,5.857352342837414405e-03,0.000000000000000000e+00
3.374309749989187757e-02,1.148323636060770703e-01,5.137828190287020702e-02,5.476661383005312911e-02,7.982786934505084475e-02,4.330968472633770633e-02,3.276720551633065248e-02,7.561024728940429762e-02,1.576776579914009047e-01,1.616624453580193521e-01,2.903531456332408833e-01,1.359885324203976564e-01,5.317558768601172992e-02,2.839480236012148495e-01,1.800648381408037069e-01,2.913399087460534220e-01,2.717406613326995291e-01,2.258140769656909741e-01,6.024454940702888422e-02,1.133378365505161717e-02,0.000000000000000000e+00
1.067326462986016578e-01,4.873523246930272501e-01,9.625020117195356995e-02,9.307887591523827941e-02,3.573990087574773766e-01,1.621825200455078997e-01,4.383243278906865520e-02,5.542357971578197595e-02,4.879138802335963171e-02,2.530377159242772622e-01,5.852076399871878332e-01,6.126415791132479027e-01,2.941063126040048270e-01,4.708323037776864783e-01,2.898890632412288726e-01,4.813256433722903904e-01,4.635273823522346182e-01,6.592204920595797768e-01,3.252073669400521450e-01,5.941248546186397861e-02,0.000000000000000000e+00
